01/Mux_tb.vcd
$date
	Wed Jun  1 14:20:42 2022
$end
$version
	Icarus Verilog
$end
$timescale
	1s
$end
$scope module Mux_tb $end
$var wire 1 ! out $end
$var reg 1 " a $end
$var reg 1 # b $end
$var reg 1 $ sel $end
$var integer 32 % file [31:0] $end
$scope module MUX $end
$var wire 1 " a $end
$var wire 1 # b $end
$var wire 1 $ sel $end
$var wire 1 & w2 $end
$var wire 1 ' w1 $end
$var wire 1 ! out $end
$var wire 1 ( notsel $end
$scope module AND1 $end
$var wire 1 " a $end
$var wire 1 ' out $end
$var wire 1 ) notaandb $end
$var wire 1 ( b $end
$scope module NAND $end
$var wire 1 " a $end
$var wire 1 ) out $end
$var wire 1 ( b $end
$upscope $end
$scope module NOT $end
$var wire 1 ) in $end
$var wire 1 ' out $end
$scope module NAND $end
$var wire 1 ) a $end
$var wire 1 * b $end
$var wire 1 ' out $end
$upscope $end
$upscope $end
$upscope $end
$scope module AND2 $end
$var wire 1 # a $end
$var wire 1 $ b $end
$var wire 1 & out $end
$var wire 1 + notaandb $end
$scope module NAND $end
$var wire 1 # a $end
$var wire 1 $ b $end
$var wire 1 + out $end
$upscope $end
$scope module NOT $end
$var wire 1 + in $end
$var wire 1 & out $end
$scope module NAND $end
$var wire 1 + a $end
$var wire 1 , b $end
$var wire 1 & out $end
$upscope $end
$upscope $end
$upscope $end
$scope module NOT $end
$var wire 1 $ in $end
$var wire 1 ( out $end
$scope module NAND $end
$var wire 1 $ a $end
$var wire 1 - b $end
$var wire 1 ( out $end
$upscope $end
$upscope $end
$scope module OR $end
$var wire 1 ' a $end
$var wire 1 & b $end
$var wire 1 ! out $end
$var wire 1 . notb $end
$var wire 1 / nota $end
$scope module NAND $end
$var wire 1 ! out $end
$var wire 1 . b $end
$var wire 1 / a $end
$upscope $end
$scope module NOT1 $end
$var wire 1 ' in $end
$var wire 1 / out $end
$scope module NAND $end
$var wire 1 ' a $end
$var wire 1 0 b $end
$var wire 1 / out $end
$upscope $end
$upscope $end
$scope module NOT2 $end
$var wire 1 & in $end
$var wire 1 . out $end
$scope module NAND $end
$var wire 1 & a $end
$var wire 1 1 b $end
$var wire 1 . out $end
$upscope $end
$upscope $end
$upscope $end
$upscope $end
$scope task display $end
$upscope $end
$upscope $end
$enddefinitions $end
#0
$dumpvars
11
10
1/
1.
1-
1,
1+
1*
1)
1(
0'
0&
b10000000000000000000000000000011 %
0$
0#
0"
0!
$end
#1
0(
1$
#2
1(
0$
1#
#3
1!
0.
1&
0+
0(
1$
#4
0/
1!
1'
1.
0)
0&
1(
1+
0$
0#
1"
#5
0!
1/
0'
1)
0(
1$
#6
1!
0/
1'
0)
1(
0$
1#
#7
1/
0.
0'
1&
1)
0+
0(
1$
